<svg xmlns="http://www.w3.org/2000/svg" width="162" height="67" viewBox="0 0 162 67">
    <g fill="none" fill-rule="evenodd">
        <g>
            <g>
                <path fill="#C70A2D" d="M161.4 54.2c-1.9 1-4.3 2.3-6.8 3.5 0 0-20.6 9.6-40.3 9.1-18.8-.5-25.7-3.6-51.8-6.3-24.2-2.5-43.3 2.9-52.6 6.4L15.6 37 .6 15c1.2-.7 2.7-1.5 4.2-2.4 0 0 24-12.7 58.8-9.1 26.1 2.7 33 5.9 51.8 6.3 19.3.5 39.5-8.7 40.3-9.1L148.1 32l13.3 22.2z" transform="translate(-465 -662) translate(465 662)"/>
                <g fill="#FFF" fill-rule="nonzero">
                    <path d="M7 9.7L8.6 21.2 11.3 20.8 11.8 24.1 3 25.4 2.5 22.1 5 21.8 2.9 6.9.4 7.2 0 3.9 5.6 3.1 18.1 15.1 16.6 5 13.9 5.4 13.5 2 22.1.8 22.6 4.1 20.2 4.4 22.7 22.6 20.7 22.9zM27.1 14.6l.4-10.5-2.4-.1.1-3.3 8.7.3-.1 3.3-2.6-.1-.4 10.3c-.1 3.3 1.5 5.2 4.3 5.3 2.8.1 4.5-1.5 4.7-4.8l.4-10.4-2.6-.1.1-3.3 8.6.3-.1 3.3-2.4-.1-.4 10.4c-.2 5.7-3.6 8.3-8.4 8.1-4.9-.1-8.1-2.9-7.9-8.6zM47.2 20.2L49.7 20.5 51.3 5.5 48.8 5.2 49.1 1.9 65.2 3.6 64.6 9.8 61 9.4 61.3 6.5 55 5.9 54.4 11.7 60.9 12.4 60.6 15.6 54 14.8 53.4 20.9 59.8 21.6 60.1 18.7 63.6 19.1 63 25.2 46.8 23.5zM68.8 7.7L66.8 7.6 67 4.3 75.6 4.9 75.4 8.2 73.1 8 76.9 20.2 82.4 8.6 80 8.4 80.2 5.1 88.8 5.7 88.6 9 86.6 8.9 77.4 26.9 75.3 26.8zM89.7 17c-1.3-6.2 2.2-12 8.7-13.3 6.4-1.3 11.8 2.6 13.1 8.8 1.3 6.2-2.2 12-8.7 13.3-6.5 1.4-11.9-2.6-13.1-8.8zm18-3.7c-.9-4.4-4.6-7-8.7-6.1-4.1.9-6.5 4.6-5.6 9.1.9 4.4 4.6 7 8.7 6.1 4.2-.8 6.5-4.6 5.6-9.1z" transform="translate(-465 -662) translate(465 662) translate(27 21)"/>
                </g>
            </g>
        </g>
    </g>
</svg>
